"Номер заказа","Номер для 1С","Артикул","Оборудование","Сумма","Клиент","Почта","Телефон","Дата брони","Начало аренды","Конец аренды","Кол-во дней","Собственник","Оплата аренды","Залог","Оценочная стоимость","Оплата получена", "Собственник", "Комментарий"
{% for b in booking_list|sort(attribute='id', reverse=True) %}"{{b.number}}","{{b.id}}","{{b.item.art}}","{{b.item.title}}","{{b.confirm_price}}","{{b.invoice.person_firstname}} {{b.invoice.person_lastname}}","{{b.invoice.person_email}}","{{b.invoice.person_phone}}","{{b.created_at}}","{{b.start}}","{{b.end}}","{{b.days}}","{{b.item.comments}}","Яндекс.Касса","{{b.item.deposit}}","{{b.item.estimate}}","{{b.invoice.is_payed}}","{{b.invoice.is_owner}}","{{b.invoice.comments}}"
{% endfor %}
